…
.     geom_text(size = 3, vjust = 0, hjust = 1, nudge_x = -0.05)
> ggplot(dogs, aes(datadog, popularity_all, label = breed, color = group)) +
.     geom_point() +
.     geom_text(size = 3, vjust = 0, hjust = 1, nudge_x = -0.05)
> ggplot(dogs, aes(datadog, popularity_all, label = breed)) +
.     geom_point(aes(color = group)) +
.     geom_text(size = 3, vjust = 0, hjust = 1, nudge_x = -0.05)
> ggplot(dogs, aes(datadog, popularity_all)) +
.     geom_point(aes(color = group))
> ggplot(dogs, aes(datadog, popularity_all)) +
.     geom_point(color = "blue")
> ggplot(dogs, aes(datadog, popularity_all)) +
.     geom_point(aes(color = "blue"))
> dogs
# A tibble: 172 x 18
   breed group datadog popularity_all popularity lifetime_cost intelligence_ra…
   <chr> <fct>   <dbl>          <int>      <int>         <dbl>            <int>
 1 Bord… herd…    3.64             45         39         20143                1
 2 Bord… terr…    3.61             80         61         22638               30
 3 Brit… spor…    3.54             30         30         22589               19
 4 Cair… terr…    3.53             59         48         21992               35
 5 Wels… spor…    3.34            130         81         20224               31
 6 Engl… spor…    3.33             63         51         18993               18
 7 Cock… spor…    3.3              27         27         24330               20
 8 Papi… toy      3.26             38         33         21001                8
 9 Aust… herd…    3.25             60         49         20395               10
10 Shet… herd…    3.22             20         20         21006                6
# … with 162 more rows, and 11 more variables: longevity <dbl>, ailments <int>,
#   price <dbl>, food_cost <dbl>, grooming <fct>, kids <fct>,
#   megarank_kids <int>, megarank <int>, size <fct>, weight <dbl>, height <dbl>
…
